\relax 
\providecommand\hyper@newdestlabel[2]{}
\providecommand\HyperFirstAtBeginDocument{\AtBeginDocument}
\HyperFirstAtBeginDocument{\ifx\hyper@anchor\@undefined
\global\let\oldcontentsline\contentsline
\gdef\contentsline#1#2#3#4{\oldcontentsline{#1}{#2}{#3}}
\global\let\oldnewlabel\newlabel
\gdef\newlabel#1#2{\newlabelxx{#1}#2}
\gdef\newlabelxx#1#2#3#4#5#6{\oldnewlabel{#1}{{#2}{#3}}}
\AtEndDocument{\ifx\hyper@anchor\@undefined
\let\contentsline\oldcontentsline
\let\newlabel\oldnewlabel
\fi}
\fi}
\global\let\hyper@last\relax 
\gdef\HyperFirstAtBeginDocument#1{#1}
\providecommand\HyField@AuxAddToFields[1]{}
\providecommand\HyField@AuxAddToCoFields[2]{}
\catcode `"\active 
\select@language{german}
\@writefile{toc}{\select@language{german}}
\@writefile{lof}{\select@language{german}}
\@writefile{lot}{\select@language{german}}
\@writefile{toc}{\contentsline {section}{\numberline {1}Allgemeines Serversetup}{3}{section.1}}
\@writefile{toc}{\contentsline {section}{\numberline {2}Server Zertifikat}{4}{section.2}}
\@writefile{toc}{\contentsline {section}{\numberline {3}Openfire}{4}{section.3}}
\@writefile{toc}{\contentsline {subsection}{\numberline {3.1}Installation des Pakets}{4}{subsection.3.1}}
\@writefile{toc}{\contentsline {subsection}{\numberline {3.2}Einrichten von Openfire}{4}{subsection.3.2}}
\@writefile{toc}{\contentsline {subsection}{\numberline {3.3}Einrichtung der Datenbank f\IeC {\"u}r Openfire}{8}{subsection.3.3}}
\@writefile{toc}{\contentsline {subsection}{\numberline {3.4}Zertifikat in Openfire}{8}{subsection.3.4}}
\@writefile{toc}{\contentsline {section}{\numberline {4}E-Mail}{9}{section.4}}
\@writefile{toc}{\contentsline {subsection}{\numberline {4.1}Server}{9}{subsection.4.1}}
\@writefile{toc}{\contentsline {subsection}{\numberline {4.2}Userverwaltung}{9}{subsection.4.2}}
\@writefile{toc}{\contentsline {subsection}{\numberline {4.3}Webfrontend}{9}{subsection.4.3}}
\@writefile{toc}{\contentsline {subsection}{\numberline {4.4}Spamfilter und AntiVirus}{9}{subsection.4.4}}
\@writefile{toc}{\contentsline {subsection}{\numberline {4.5}Loginanalyzer}{9}{subsection.4.5}}
\@writefile{toc}{\contentsline {section}{\numberline {5}Webserver}{9}{section.5}}
\@writefile{toc}{\contentsline {section}{\numberline {6}CloudStorage}{9}{section.6}}
\@writefile{toc}{\contentsline {subsection}{\numberline {6.1}OwnCloud}{9}{subsection.6.1}}
\@writefile{toc}{\contentsline {subsection}{\numberline {6.2}Installation}{9}{subsection.6.2}}
\@writefile{toc}{\contentsline {subsection}{\numberline {6.3}Einrichtung}{9}{subsection.6.3}}
\@writefile{toc}{\contentsline {section}{\numberline {7}Kommunikation}{9}{section.7}}
\@writefile{toc}{\contentsline {subsection}{\numberline {7.1}Installation}{9}{subsection.7.1}}
\@writefile{toc}{\contentsline {section}{\numberline {8}DevBasis}{10}{section.8}}
\bibstyle{apalike}
\bibdata{sample}
\@writefile{toc}{\contentsline {subsection}{\numberline {8.1}Java}{11}{subsection.8.1}}
\@writefile{toc}{\contentsline {subsection}{\numberline {8.2}JCE-8}{11}{subsection.8.2}}
\@writefile{toc}{\contentsline {section}{\numberline {9}Security}{11}{section.9}}
